{ "fabric:load_conditions": [ { "condition": "fabric:all_mods_loaded", "values": [ "consistency_plus" ] } ],
	"type": "kilnreborn:firing",
	"ingredient": {
		"item": "consistency_plus:cobbled_magenta_terracotta"
	},
	"result": "minecraft:magenta_terracotta",
	"experience": 0.1,
	"cookingtime": 100
}
