{
  "type": "kilnreborn:firing",
  "category": "blocks",
  "cookingtime": 100,
  "experience": 0.1,
  "ingredient": {
    "item": "minecraft:deepslate_bricks"
  },
  "result": {
    "id": "minecraft:cracked_deepslate_bricks"
  }
}