{
  "type": "kilnreborn:firing",
  "category": "blocks",
  "cookingtime": 100,
  "experience": 0.1,
  "ingredient": {
    "item": "minecraft:green_terracotta"
  },
  "result": {
    "id": "minecraft:green_glazed_terracotta"
  }
}