{
  "type": "kilnreborn:firing",
  "category": "misc",
  "cookingtime": 100,
  "experience": 1.0,
  "ingredient": {
    "item": "minecraft:sea_pickle"
  },
  "result": {
    "id": "minecraft:lime_dye"
  }
}