{
  "type": "kilnreborn:firing",
  "category": "blocks",
  "cookingtime": 100,
  "experience": 0.1,
  "ingredient": {
    "item": "natprog:cobbled_granite"
  },
  "result": {
    "id": "minecraft:granite"
  }
}