{
  "parent": "minecraft:recipes/root",
  "criteria": {
    "has_terracotta": {
      "conditions": {
        "items": [
          {
            "items": "minecraft:gray_terracotta"
          }
        ]
      },
      "trigger": "minecraft:inventory_changed"
    },
    "has_the_recipe": {
      "conditions": {
        "recipe": "kilnreborn:gray_glazed_terracotta_from_firing"
      },
      "trigger": "minecraft:recipe_unlocked"
    }
  },
  "requirements": [
    [
      "has_the_recipe",
      "has_terracotta"
    ]
  ],
  "rewards": {
    "recipes": [
      "kilnreborn:gray_glazed_terracotta_from_firing"
    ]
  }
}