{ "fabric:load_conditions": [ { "condition": "fabric:all_mods_loaded", "values": [ "twigs" ] } ],
	"type": "kilnreborn:firing",
	"ingredient": {
		"item": "twigs:polished_bloodstone_bricks"
	},
	"result": "twigs:cracked_polished_bloodstone_bricks",
	"experience": 0.1,
	"cookingtime": 100
}
